…
```
## # A tibble: 1 x 5
##   sample         disease         age_at_dx pedaya              gender
##   <chr>          <chr>               <dbl> <chr>               <chr> 
## 1 THR33_1001_S01 medulloblastoma         5 Yes, age < 30 years male
```

```r
sample_metadata[,"disease"]
```

```
## # A tibble: 11,610 x 1
##    disease                            
##    <chr>                              
##  1 acute leukemia of ambiguous lineage
##  2 acute leukemia of ambiguous lineage
##  3 medulloblastoma                    
##  4 medulloblastoma                    
##  5 medulloblastoma                    
##  6 medulloblastoma                    
##  7 medulloblastoma                    
##  8 medulloblastoma                    
##  9 medulloblastoma                    
## 10 medulloblastoma                    
## # … with 11,600 more rows
```
…
```
## [1] 702
```

`sum` treats TRUE as 1 and FALSE as 0, so it tells us the number of TRUE elements in the vector.

We can use this logical vector to get the glioma samples from `sample_metadata`:


```r
sample_metadata[is_glioma,]
```

```
## # A tibble: 702 x 5
##    sample         disease age_at_dx pedaya              gender      
##    <chr>          <chr>       <dbl> <chr>               <chr>       
##  1 TH03_0117_S01  glioma       0.9  Yes, age < 30 years not reported
##  2 TH06_1175_S01  glioma      17    Yes, age < 30 years female      
##  3 TH38_1311_S02  glioma      13    Yes, age < 30 years male        
##  4 TH38_1346_S02  glioma      11    Yes, age < 30 years female      
##  5 TH34_1445_S02  glioma       7    Yes, age < 30 years female      
##  6 THR24_1924_S01 glioma       5.33 Yes, age < 30 years female      
##  7 THR24_1925_S01 glioma      15.0  Yes, age < 30 years female      
##  8 THR24_1925_S02 glioma      15.0  Yes, age < 30 years female      
##  9 THR24_1926_S01 glioma      13.1  Yes, age < 30 years male        
## 10 THR24_1926_S02 glioma      13.1  Yes, age < 30 years male        
## # … with 692 more rows
```
…
* `a & b ` -- "and", TRUE only if both `a` and `b` are TRUE.
* `a | b ` -- "or", TRUE if either `a` or `b` or both are TRUE.
* `! a   ` -- "not" , TRUE if `a` is FALSE, and FALSE if `a` is TRUE.

The `age_at_dx` column of `sample_metadata` tells the age at which the person was diagnosed. We could see which gliomas occured in people over 65 with:


```r
senior_gliomas <- is_glioma & sample_metadata$age_at_dx >65

sample_metadata[senior_gliomas,]
```

```
## # A tibble: 33 x 5
##    sample          disease age_at_dx pedaya gender
##    <chr>           <chr>       <dbl> <chr>  <chr> 
##  1 TCGA-CS-4941-01 glioma         67 No     male  
##  2 TCGA-DB-A64L-01 glioma         67 No     female
##  3 TCGA-DH-A669-01 glioma         70 No     male  
##  4 TCGA-DH-A669-02 glioma         70 No     male  
##  5 TCGA-DU-6393-01 glioma         66 No     male  
##  6 TCGA-DU-6400-01 glioma         66 No     female
##  7 TCGA-DU-7012-01 glioma         74 No     female
##  8 TCGA-DU-7292-01 glioma         69 No     male  
##  9 TCGA-DU-7306-01 glioma         67 No     male  
## 10 TCGA-DU-8167-01 glioma         69 No     female
## # … with 23 more rows
```

`senior_gliomas` seems like it should be kept within our `sample_metadata` data frame for future use. We can add it as a new column of the data frame with:


```r
sample_metadata$senior_glioma <- senior_gliomas

sample_metadata
```

```
## # A tibble: 11,610 x 6
##    sample     disease            age_at_dx pedaya      gender senior_glioma
##    <chr>      <chr>                  <dbl> <chr>       <chr>  <lgl>        
##  1 TH03_0010… acute leukemia of…        11 Yes, age <… female FALSE        
##  2 TH03_0010… acute leukemia of…        11 Yes, age <… female FALSE        
##  3 THR33_100… medulloblastoma            7 Yes, age <… female FALSE        
##  4 THR33_100… medulloblastoma            5 Yes, age <… male   FALSE        
##  5 THR33_100… medulloblastoma            5 Yes, age <… female FALSE        
##  6 THR33_100… medulloblastoma            3 Yes, age <… female FALSE        
##  7 THR33_100… medulloblastoma           26 Yes, age <… male   FALSE        
##  8 THR33_100… medulloblastoma           10 Yes, age <… male   FALSE        
##  9 THR33_100… medulloblastoma            3 Yes, age <… male   FALSE        
## 10 THR33_100… medulloblastoma           27 Yes, age <… male   FALSE        
## # … with 11,600 more rows
```
…
2. How many samples are from seniors?


### A `dplyr` shorthand

The above method is a little laborious. We have to keep mentioning the name of the data frame, and there is a lot of punctuation to keep track of. `dplyr` provides a slightly magical function called `filter` which lets us write more concisely. For example:


```r
filter(sample_metadata, sample_metadata$age_at_dx >65 & disease == "glioma")
```

```
## # A tibble: 33 x 6
##    sample          disease age_at_dx pedaya gender senior_glioma
##    <chr>           <chr>       <dbl> <chr>  <chr>  <lgl>        
##  1 TCGA-CS-4941-01 glioma         67 No     male   TRUE         
##  2 TCGA-DB-A64L-01 glioma         67 No     female TRUE         
##  3 TCGA-DH-A669-01 glioma         70 No     male   TRUE         
##  4 TCGA-DH-A669-02 glioma         70 No     male   TRUE         
##  5 TCGA-DU-6393-01 glioma         66 No     male   TRUE         
##  6 TCGA-DU-6400-01 glioma         66 No     female TRUE         
##  7 TCGA-DU-7012-01 glioma         74 No     female TRUE         
##  8 TCGA-DU-7292-01 glioma         69 No     male   TRUE         
##  9 TCGA-DU-7306-01 glioma         67 No     male   TRUE         
## 10 TCGA-DU-8167-01 glioma         69 No     female TRUE         
## # … with 23 more rows
```
…
Investigate how many acute myeloid leukemia samples come from adult or pediatric individuals using `count`


## Sorting

Data frames can be sorted using the `arrange` function in `dplyr`.


```r
arrange(sample_metadata, age_at_dx)
```

```
## # A tibble: 11,610 x 6
##    sample     disease            age_at_dx pedaya      gender senior_glioma
##    <chr>      <chr>                  <dbl> <fct>       <chr>  <lgl>        
##  1 THR08_016… acute lymphoblast…         0 Yes, age <… unkno… FALSE        
##  2 THR08_016… acute lymphoblast…         0 Yes, age <… unkno… FALSE        
##  3 TH06_0613… atypical teratoid…         0 Yes, age <… male   FALSE        
##  4 TH06_0613… atypical teratoid…         0 Yes, age <… male   FALSE        
##  5 TH06_0627… glioblastoma mult…         0 Yes, age <… female FALSE        
##  6 THR29_074… rhabdomyosarcoma           0 Yes, age <… female FALSE        
##  7 THR29_074… embryonal rhabdom…         0 Yes, age <… male   FALSE        
##  8 THR29_075… alveolar rhabdomy…         0 Yes, age <… male   FALSE        
##  9 THR29_075… alveolar rhabdomy…         0 Yes, age <… male   FALSE        
## 10 THR29_078… embryonal rhabdom…         0 Yes, age <… female FALSE        
## # … with 11,600 more rows
```

Numeric columns are sorted in numeric order. Character columns will be sorted in alphabetical order. Factor columns are sorted in order of their levels. The `desc` helper function can be used to sort in descending order.


```r
arrange(sample_metadata, desc(disease))
```

```
## # A tibble: 11,610 x 6
##    sample          disease    age_at_dx pedaya         gender senior_glioma
##    <chr>           <chr>          <dbl> <fct>          <chr>  <lgl>        
##  1 TH03_0012_S01   wilms tum…     18    Yes, age < 30… male   FALSE        
##  2 TH03_0012_S02   wilms tum…     18    Yes, age < 30… male   FALSE        
##  3 TH03_0144_S01   wilms tum…      6    Yes, age < 30… male   FALSE        
##  4 TH27_2189_S01   wilms tum…      5    Yes, age < 30… female FALSE        
##  5 TH06_0632_S01   wilms tum…      4    Yes, age < 30… female FALSE        
##  6 TARGET-50-CAAA… wilms tum…      6.15 Yes, age < 30… female FALSE        
##  7 TARGET-50-CAAA… wilms tum…      4.68 Yes, age < 30… female FALSE        
##  8 TARGET-50-CAAA… wilms tum…      1.1  Yes, age < 30… female FALSE        
##  9 TARGET-50-CAAA… wilms tum…      4.38 Yes, age < 30… female FALSE        
## 10 TARGET-50-CAAA… wilms tum…      7.53 Yes, age < 30… female FALSE        
## # … with 11,600 more rows
```


## Joining data frames

Let's move on to a larger data set. These are some gene expression values. 


```r
expression_values <- read_tsv("expression_data_for_MAP2K1_HRAS_v9_.tsv") %>%
  gather(sample, expression, -Gene)
expression_values
```

```
## # A tibble: 22,908 x 3
##    Gene   sample         expression
##    <chr>  <chr>               <dbl>
##  1 HRAS   THR15_0330_S01       5.77
##  2 MAP2K1 THR15_0330_S01       4.53
##  3 HRAS   THR29_0776_S01       6.99
##  4 MAP2K1 THR29_0776_S01       4.51
##  5 HRAS   THR11_0247_S01       6.10
##  6 MAP2K1 THR11_0247_S01       5.75
##  7 HRAS   THR08_0162_S01       4.48
##  8 MAP2K1 THR08_0162_S01       6.42
##  9 HRAS   TH27_1241_S01        6.41
## 10 MAP2K1 TH27_1241_S01        5.39
## # … with 22,898 more rows
```
…
What is the unit of observation in this new data frame?

### {-}

It would be useful to have general information about samples from `sample_metadata` available as columns when we use this data frame. `expression_values` and `sample_metadata` share a column called `sample` which can be used to match rows from one to the other. 


```r
expression_by_disease <- left_join(expression_values, sample_metadata, by=c("sample"))
expression_by_disease
```

```
## # A tibble: 22,908 x 8
##    Gene   sample  expression disease  age_at_dx pedaya gender senior_glioma
##    <chr>  <chr>        <dbl> <chr>        <dbl> <fct>  <chr>  <lgl>        
##  1 HRAS   THR15_…       5.77 <NA>          NA   <NA>   <NA>   NA           
##  2 MAP2K1 THR15_…       4.53 <NA>          NA   <NA>   <NA>   NA           
##  3 HRAS   THR29_…       6.99 rhabdom…      20   Yes, … male   FALSE        
##  4 MAP2K1 THR29_…       4.51 rhabdom…      20   Yes, … male   FALSE        
##  5 HRAS   THR11_…       6.10 glioma        13   Yes, … male   FALSE        
##  6 MAP2K1 THR11_…       5.75 glioma        13   Yes, … male   FALSE        
##  7 HRAS   THR08_…       4.48 acute l…       0.6 Yes, … unkno… FALSE        
##  8 MAP2K1 THR08_…       6.42 acute l…       0.6 Yes, … unkno… FALSE        
##  9 HRAS   TH27_1…       6.41 <NA>          NA   <NA>   <NA>   NA           
## 10 MAP2K1 TH27_1…       5.39 <NA>          NA   <NA>   <NA>   NA           
## # … with 22,898 more rows
```
…
