2 Data frames | Introduction to R, version 2
…
The column or row may be omitted, thereby retrieving the entire row or column.

sample_metadata[4,]

## # A tibble: 1 x 8
##   th_sampleid disease age_at_dx pedaya gender site_id site_donor_id
##   <chr>       <chr>       <dbl> <chr>  <chr>  <chr>   <chr>        
## 1 THR33_1001… medull…         5 Yes, … male   THR33   N/A          
## # … with 1 more variable: site_sampleid <chr>

sample_metadata[,"disease"]

## # A tibble: 12,236 x 1
##    disease                            
##    <chr>                              
##  1 acute leukemia of ambiguous lineage
##  2 acute leukemia of ambiguous lineage
##  3 medulloblastoma                    
##  4 medulloblastoma                    
##  5 medulloblastoma                    
##  6 medulloblastoma                    
##  7 medulloblastoma                    
##  8 medulloblastoma                    
##  9 medulloblastoma                    
## 10 medulloblastoma                    
## # … with 12,226 more rows
…
head(is_glioma)

## [1] FALSE FALSE FALSE FALSE FALSE FALSE

sum(is_glioma)

## [1] NA

sum treats TRUE as 1 and FALSE as 0, so it tells us the number of TRUE elements in the vector.

We can use this logical vector to get the southern countries from sample_metadata:

sample_metadata[is_glioma,]

## # A tibble: 756 x 8
##    th_sampleid disease age_at_dx pedaya gender site_id site_donor_id
##    <chr>       <chr>       <dbl> <chr>  <chr>  <chr>   <chr>        
##  1 TH03_0117_… glioma       0.9  Yes, … not r… TH03    N/A          
##  2 TH06_1175_… glioma      17    Yes, … female TH06    N/A          
##  3 TH27_1241_… glioma      NA    Unkno… unkno… TH27    N/A          
##  4 TH38_1311_… glioma      13    Yes, … male   TH38    N/A          
##  5 TH38_1346_… glioma      11    Yes, … female TH38    N/A          
##  6 TH34_1445_… glioma       7    Yes, … female TH34    N/A          
##  7 <NA>        <NA>        NA    <NA>   <NA>   <NA>    <NA>         
##  8 THR24_1924… glioma       5.33 Yes, … female THR24   SJHGG001     
##  9 THR24_1925… glioma      15.0  Yes, … female THR24   SJHGG002     
## 10 THR24_1925… glioma      15.0  Yes, … female THR24   SJHGG002     
## # … with 746 more rows, and 1 more variable: site_sampleid <chr>
…
More complicated conditions can be constructed using logical operators:

a & b – “and”, TRUE only if both a and b are TRUE.

a | b – “or”, TRUE if either a or b or both are TRUE.

! a – “not” , TRUE if a is FALSE, and FALSE if a is TRUE.

The blash column of sample_metadata tells which countries are in the Organisation for Economic Co-operation and Development, and the g77 column tells which countries are in the Group of 77 (an alliance of developing nations). We could see which OECD countries are in the southern hemisphere with:

senior_gliomas <- is_glioma & sample_metadata$age_at_dx >65

sample_metadata[senior_gliomas,]

## # A tibble: 86 x 8
##    th_sampleid disease age_at_dx pedaya gender site_id site_donor_id
##    <chr>       <chr>       <dbl> <chr>  <chr>  <chr>   <chr>        
##  1 <NA>        <NA>           NA <NA>   <NA>   <NA>    <NA>         
##  2 <NA>        <NA>           NA <NA>   <NA>   <NA>    <NA>         
##  3 <NA>        <NA>           NA <NA>   <NA>   <NA>    <NA>         
##  4 <NA>        <NA>           NA <NA>   <NA>   <NA>    <NA>         
##  5 <NA>        <NA>           NA <NA>   <NA>   <NA>    <NA>         
##  6 <NA>        <NA>           NA <NA>   <NA>   <NA>    <NA>         
##  7 <NA>        <NA>           NA <NA>   <NA>   <NA>    <NA>         
##  8 <NA>        <NA>           NA <NA>   <NA>   <NA>    <NA>         
##  9 <NA>        <NA>           NA <NA>   <NA>   <NA>    <NA>         
## 10 <NA>        <NA>           NA <NA>   <NA>   <NA>    <NA>         
## # … with 76 more rows, and 1 more variable: site_sampleid <chr>

senior_gliomas seems like it should be kept within our sample_metadata data frame for future use. We can add it as a new column of the data frame with:

sample_metadata$senior_glioma <- senior_gliomas

sample_metadata

## # A tibble: 12,236 x 9
##    th_sampleid disease age_at_dx pedaya gender site_id site_donor_id
##    <chr>       <chr>       <dbl> <chr>  <chr>  <chr>   <chr>        
##  1 TH03_0010_… acute …        11 Yes, … female TH03    N/A          
##  2 TH03_0010_… acute …        11 Yes, … female TH03    N/A          
##  3 THR33_1000… medull…         7 Yes, … female THR33   N/A          
##  4 THR33_1001… medull…         5 Yes, … male   THR33   N/A          
##  5 THR33_1002… medull…         5 Yes, … female THR33   N/A          
##  6 THR33_1003… medull…         3 Yes, … female THR33   N/A          
##  7 THR33_1004… medull…        26 Yes, … male   THR33   N/A          
##  8 THR33_1005… medull…        10 Yes, … male   THR33   N/A          
##  9 THR33_1006… medull…         3 Yes, … male   THR33   N/A          
## 10 THR33_1007… medull…        27 Yes, … male   THR33   N/A          
## # … with 12,226 more rows, and 2 more variables: site_sampleid <chr>,
## #   senior_glioma <lgl>
Challenge: logical indexing

Which country is in both the OECD and the G77?

Which countries are in neither the OECD nor the G77?

Which countries are in the Americas? These have longitudes between -150 and -40.

2.6.1 A dplyr shorthand

The above method is a little laborious. We have to keep mentioning the name of the data frame, and there is a lot of punctuation to keep track of. dplyr provides a slightly magical function called filter which lets us write more concisely. For example:

filter(sample_metadata, sample_metadata$age_at_dx >65 & disease == "glioma")

## # A tibble: 33 x 9
##    th_sampleid disease age_at_dx pedaya gender site_id site_donor_id
##    <chr>       <chr>       <dbl> <chr>  <chr>  <chr>   <chr>        
##  1 TCGA-CS-49… glioma         67 No     male   TCGA    TCGA-CS-4941 
##  2 TCGA-DB-A6… glioma         67 No     female TCGA    TCGA-DB-A64L 
##  3 TCGA-DH-A6… glioma         70 No     male   TCGA    TCGA-DH-A669 
##  4 TCGA-DH-A6… glioma         70 No     male   TCGA    TCGA-DH-A669 
##  5 TCGA-DU-63… glioma         66 No     male   TCGA    TCGA-DU-6393 
##  6 TCGA-DU-64… glioma         66 No     female TCGA    TCGA-DU-6400 
##  7 TCGA-DU-70… glioma         74 No     female TCGA    TCGA-DU-7012 
##  8 TCGA-DU-72… glioma         69 No     male   TCGA    TCGA-DU-7292 
##  9 TCGA-DU-73… glioma         67 No     male   TCGA    TCGA-DU-7306 
## 10 TCGA-DU-81… glioma         69 No     female TCGA    TCGA-DU-8167 
## # … with 23 more rows, and 2 more variables: site_sampleid <chr>,
## #   senior_glioma <lgl>

In the second argument, we are able to refer to columns of the data frame as though they were variables. The code is beautiful, but also opaque. It’s important to understand that under the hood we are creating and combining logical vectors.

2.7 Factors

The count function from dplyr can help us understand the contents of some of the columns in geo. count is also magical, we can refer to columns of the data frame directly in the arguments to count.

count(sample_metadata, disease)

## # A tibble: 103 x 2
##    disease                                 n
##    <chr>                               <int>
##  1 acinar cell carcinoma                   1
##  2 acute leukemia                          7
##  3 acute leukemia of ambiguous lineage     2
##  4 acute lymphoblastic leukemia          549
##  5 acute megakaryoblastic leukemia        92
##  6 acute myeloid leukemia                463
##  7 acute undifferentiated leukemia         1
##  8 adrenocortical adenoma                  1
##  9 adrenocortical cancer                  78
## 10 adrenocortical carcinoma               18
## # … with 93 more rows
…
We can count two categorical columns at once.

count(sample_metadata, pedaya, disease)

## Warning: Factor `pedaya` contains implicit NA, consider using
## `forcats::fct_explicit_na`

## # A tibble: 163 x 3
##    pedaya              disease                                 n
##    <fct>               <chr>                               <int>
##  1 Yes, age < 30 years acinar cell carcinoma                   1
##  2 Yes, age < 30 years acute leukemia                          1
##  3 Yes, age < 30 years acute leukemia of ambiguous lineage     2
##  4 Yes, age < 30 years acute lymphoblastic leukemia          549
##  5 Yes, age < 30 years acute megakaryoblastic leukemia        92
##  6 Yes, age < 30 years acute myeloid leukemia                303
##  7 Yes, age < 30 years acute undifferentiated leukemia         1
##  8 Yes, age < 30 years adrenocortical adenoma                  1
##  9 Yes, age < 30 years adrenocortical cancer                  15
## 10 Yes, age < 30 years adrenocortical carcinoma               18
## # … with 153 more rows
…
By making a mosaic plot.

Remember you may need to convert columns to factors for plot to work, and that a southern column could be added to geo with:

HCB: consider adding leukemia as the example with a grep

# geo$southern <- geo$lat < 0

2.8 Sorting

Data frames can be sorted using the arrange function in dplyr.

arrange(sample_metadata, age_at_dx)

## # A tibble: 12,236 x 9
##    th_sampleid disease age_at_dx pedaya gender site_id site_donor_id
##    <chr>       <chr>       <dbl> <fct>  <chr>  <chr>   <chr>        
##  1 THR08_0168… acute …         0 Yes, … unkno… THR08   SJINF009     
##  2 THR08_0169… acute …         0 Yes, … unkno… THR08   SJINF010     
##  3 TH06_0613_… atypic…         0 Yes, … male   TH06    N/A          
##  4 TH06_0613_… atypic…         0 Yes, … male   TH06    N/A          
##  5 TH06_0627_… gliobl…         0 Yes, … female TH06    N/A          
##  6 THR29_0744… rhabdo…         0 Yes, … female THR29   RMS_2049     
##  7 THR29_0748… embryo…         0 Yes, … male   THR29   RMS_2053     
##  8 THR29_0753… alveol…         0 Yes, … male   THR29   RMS_2061     
##  9 THR29_0754… alveol…         0 Yes, … male   THR29   RMS_2063     
## 10 THR29_0782… embryo…         0 Yes, … female THR29   RMS_212      
## # … with 12,226 more rows, and 2 more variables: site_sampleid <chr>,
## #   senior_glioma <lgl>

Numeric columns are sorted in numeric order. Character columns will be sorted in alphabetical order. Factor columns are sorted in order of their levels. The desc helper function can be used to sort in descending order.

arrange(sample_metadata, desc(disease))

## # A tibble: 12,236 x 9
##    th_sampleid disease age_at_dx pedaya gender site_id site_donor_id
##    <chr>       <chr>       <dbl> <fct>  <chr>  <chr>   <chr>        
##  1 TH03_0012_… wilms …     18    Yes, … male   TH03    N/A          
##  2 TH03_0012_… wilms …     18    Yes, … male   TH03    N/A          
##  3 TH27_1405_… wilms …     NA    <NA>   male   TH27    N/A          
##  4 TH03_0144_… wilms …      6    Yes, … male   TH03    N/A          
##  5 TH27_2189_… wilms …      5    Yes, … female TH27    N/A          
##  6 TH06_0632_… wilms …      4    Yes, … female TH06    N/A          
##  7 THR31_0876… wilms …     NA    Yes, … male   THR31   N/A          
##  8 TARGET-50-… wilms …      6.15 Yes, … female TARGET  TARGET-50-CA…
##  9 TARGET-50-… wilms …      4.68 Yes, … female TARGET  TARGET-50-CA…
## 10 TARGET-50-… wilms …      1.1  Yes, … female TARGET  TARGET-50-CA…
## # … with 12,226 more rows, and 2 more variables: site_sampleid <chr>,
## #   senior_glioma <lgl>

2.9 Joining data frames

Let’s move on to a larger data set. This is from the Gapminder project and contains information about countries over time.

expression_values <- read_tsv("expression_data_for_MAP2K1_HRAS_v9_.tsv") %>%
  gather(sample, expression, -Gene)
expression_values

## # A tibble: 22,908 x 3
##    Gene   sample         expression
##    <chr>  <chr>               <dbl>
##  1 HRAS   THR15_0330_S01       5.77
##  2 MAP2K1 THR15_0330_S01       4.53
##  3 HRAS   THR29_0776_S01       6.99
##  4 MAP2K1 THR29_0776_S01       4.51
##  5 HRAS   THR11_0247_S01       6.10
##  6 MAP2K1 THR11_0247_S01       5.75
##  7 HRAS   THR08_0162_S01       4.48
##  8 MAP2K1 THR08_0162_S01       6.42
##  9 HRAS   TH27_1241_S01        6.41
## 10 MAP2K1 TH27_1241_S01        5.39
## # … with 22,898 more rows

Quiz

What is the unit of observation in this new data frame?

It would be useful to have general information about countries from geo available as columns when we use this data frame. gap and geo share a column called name which can be used to match rows from one to the other.

expression_by_disease <- left_join(expression_values, sample_metadata, by=c("sample"="th_sampleid"))
expression_by_disease

## # A tibble: 22,908 x 11
##    Gene  sample expression disease age_at_dx pedaya gender site_id
##    <chr> <chr>       <dbl> <chr>       <dbl> <fct>  <chr>  <chr>  
##  1 HRAS  THR15…       5.77 osteos…      NA   Yes, … female THR15  
##  2 MAP2… THR15…       4.53 osteos…      NA   Yes, … female THR15  
##  3 HRAS  THR29…       6.99 rhabdo…      20   Yes, … male   THR29  
##  4 MAP2… THR29…       4.51 rhabdo…      20   Yes, … male   THR29  
##  5 HRAS  THR11…       6.10 glioma       13   Yes, … male   THR11  
##  6 MAP2… THR11…       5.75 glioma       13   Yes, … male   THR11  
##  7 HRAS  THR08…       4.48 acute …       0.6 Yes, … unkno… THR08  
##  8 MAP2… THR08…       6.42 acute …       0.6 Yes, … unkno… THR08  
##  9 HRAS  TH27_…       6.41 glioma       NA   Unkno… unkno… TH27   
## 10 MAP2… TH27_…       5.39 glioma       NA   Unkno… unkno… TH27   
## # … with 22,898 more rows, and 3 more variables: site_donor_id <chr>,
## #   site_sampleid <chr>, senior_glioma <lgl>
…
