4 Summarizing data | Introduction to R, version 2
…
summarize(expression_by_disease, mean_age_at_dx = mean(age_at_dx, na.rm=TRUE))

## # A tibble: 1 x 1
##   mean_age_at_dx
##            <dbl>
## 1           13.1

So far unremarkable, but summarize comes into its own when the group_by “adjective” is used.

summarize(
    group_by(expression_by_disease, disease), 
    mean_age_at_dx=mean(age_at_dx,na.rm=TRUE))

## # A tibble: 36 x 2
##    disease                             mean_age_at_dx
##    <chr>                                        <dbl>
##  1 acute leukemia of ambiguous lineage           11  
##  2 acute lymphoblastic leukemia                   6.8
##  3 acute myeloid leukemia                        22.4
##  4 adrenocortical carcinoma                      12  
##  5 alveolar rhabdomyosarcoma                     17  
##  6 atypical teratoid/rhabdoid tumor               1.4
##  7 colon adenocarcinoma                          24  
##  8 desmoplastic small round cell tumor           18.5
##  9 embryonal rhabdomyosarcoma                    16  
## 10 ependymoma                                     6.7
## # … with 26 more rows

group_by can be used to group by multiple columns, much like count. We can use this to see how the rest of the world is catching up to OECD nations in terms of life expectancy.

result <- summarize(
    group_by(expression_by_disease, disease, gender), 
    mean_age_at_dx=mean(age_at_dx,na.rm=TRUE))

result

## # A tibble: 52 x 3
## # Groups:   disease [36]
##    disease                             gender       mean_age_at_dx
##    <chr>                               <chr>                 <dbl>
##  1 acute leukemia of ambiguous lineage female                 11  
##  2 acute lymphoblastic leukemia        female                NaN  
##  3 acute lymphoblastic leukemia        male                    6.8
##  4 acute myeloid leukemia              female                 24.7
##  5 acute myeloid leukemia              male                   18.4
##  6 adrenocortical carcinoma            not reported           12  
##  7 alveolar rhabdomyosarcoma           female                 17  
##  8 atypical teratoid/rhabdoid tumor    male                    1.4
##  9 colon adenocarcinoma                female                 24  
## 10 desmoplastic small round cell tumor male                   18.5
## # … with 42 more rows
…
